Data Science per psicologi - 19 Approssimazione della distribuzione a posteriori
…
\[\begin{equation}
\theta \mid (y = 23) \sim \mbox{Beta}(25, 17).\notag
\end{equation}\]
Per approssimare la distribuzione a posteriori, fissiamo una griglia di \(n = 11\) valori equispaziati: \(\theta \in \{0, 0.1, 0.2, 0.3, 0.4, 0.5, 0.6, 0.7, 0.8, 0.9, 1\}\):

Codice
grid_data <- tibble(
  theta_grid = seq(from = 0, to = 1, length.out = 11)
)
grid_data
#> # A tibble: 11 × 1
#>   theta_grid
#>        <dbl>
#> 1        0  
#> 2        0.1
#> 3        0.2
#> 4        0.3
#> 5        0.4
#> 6        0.5
#> 7        0.6
#> 8        0.7
#> # … with 3 more rows
…
Abbiamo dunque ottenuto la seguente distribuzione a posteriori discretizzata \(p(\theta \mid y)\):

Codice
round(grid_data, 2)
#> # A tibble: 11 × 5
#>   theta_grid prior likelihood unnormalized posterior
#>        <dbl> <dbl>      <dbl>        <dbl>     <dbl>
#> 1        0    0          0               0      0   
#> 2        0.1  4.26       0               0      0   
#> 3        0.2  2.95       0               0      0   
#> 4        0.3  1.33       0               0      0   
#> 5        0.4  0.44       0               0      0.02
#> 6        0.5  0.11       0               0      0.23
#> 7        0.6  0.02       0.03            0      0.52
#> 8        0.7  0          0.12            0      0.21
#> # … with 3 more rows
…
